{
  "deviceUrl": "Android://127.0.0.1:5037/5DEDU18519015261",
  "os": "android",
  "deviceId": "5DEDU18519015261",
  "appPackage": "com.taobao.alitrip",
  "testCases": [
    {
      "caseKey": "test_hotel_service_entrance",
      "caseName": "酒店",
      "casePath": "src/testcases/test_hotel_service_entrance.py"
    },
    {
      "caseKey": "test_flight_service_entrance",
      "caseName": "机票",
      "casePath": "src/testcases/test_flight_service_entrance.py"
    }
  ],
  "runCases": ["test_flight_service_entrance"]
}